<mxfile host="www.draw.io" modified="2020-01-28T01:05:09.109Z" agent="Mozilla/5.0 (Windows NT 10.0; Win64; x64; rv:72.0) Gecko/20100101 Firefox/72.0" etag="m8Q2iz-k-gslMrwZ9Lqf" version="12.5.8" type="gitlab" pages="3">
  <diagram name="Home" id="03018318-947c-dd8e-b7a3-06fadd420f32">
    <mxGraphModel dx="1192" dy="636" grid="1" gridSize="10" guides="1" tooltips="1" connect="1" arrows="1" fold="1" page="1" pageScale="1" pageWidth="1100" pageHeight="850" background="#ffffff" math="0" shadow="0">
      <root>
        <mxCell id="0"/>
        <mxCell id="1" parent="0"/>
        <mxCell id="677b7b8949515195-1" value="" style="whiteSpace=wrap;html=1;rounded=0;shadow=0;labelBackgroundColor=none;strokeColor=#000000;strokeWidth=1;fillColor=none;fontFamily=Verdana;fontSize=12;fontColor=#000000;align=center;comic=1;" parent="1" vertex="1">
          <mxGeometry x="20" y="20" width="1060" height="810" as="geometry"/>
        </mxCell>
        <mxCell id="677b7b8949515195-2" value="&lt;div&gt;Web Applications&lt;/div&gt;&lt;div&gt;&lt;font style=&quot;font-size: 10px&quot;&gt;by Geek Developers and Arts&lt;/font&gt;&lt;br&gt;&lt;/div&gt;" style="whiteSpace=wrap;html=1;rounded=0;shadow=0;labelBackgroundColor=none;strokeWidth=1;fontFamily=Verdana;fontSize=28;align=center;comic=1;" parent="1" vertex="1">
          <mxGeometry x="40" y="60" width="250" height="60" as="geometry"/>
        </mxCell>
        <mxCell id="677b7b8949515195-3" value="Search" style="strokeWidth=1;shadow=0;dashed=0;align=center;html=1;shape=mxgraph.mockup.forms.searchBox;strokeColor=#999999;mainText=;strokeColor2=#008cff;fontColor=#666666;fontSize=17;align=left;spacingLeft=3;rounded=0;labelBackgroundColor=none;comic=1;" parent="1" vertex="1">
          <mxGeometry x="840" y="95" width="220" height="30" as="geometry"/>
        </mxCell>
        <UserObject label="Client Login" link="data:page/id,uniPPKt_yD_kISPJrwE9" id="677b7b8949515195-6">
          <mxCell style="text;html=1;points=[];align=left;verticalAlign=top;spacingTop=-4;fontSize=14;fontFamily=Verdana;fontStyle=4" parent="1" vertex="1">
            <mxGeometry x="870" y="40" width="60" height="20" as="geometry"/>
          </mxCell>
        </UserObject>
        <UserObject label="Admin Login" link="data:page/id,QcSqNq1Q-DK5ZfpZK_8s" id="677b7b8949515195-7">
          <mxCell style="text;html=1;points=[];align=left;verticalAlign=top;spacingTop=-4;fontSize=14;fontFamily=Verdana;fontStyle=4" parent="1" vertex="1">
            <mxGeometry x="970" y="40" width="60" height="20" as="geometry"/>
          </mxCell>
        </UserObject>
        <mxCell id="677b7b8949515195-8" value="" style="whiteSpace=wrap;html=1;rounded=0;shadow=0;labelBackgroundColor=none;strokeWidth=1;fillColor=none;fontFamily=Verdana;fontSize=12;align=center;comic=1;" parent="1" vertex="1">
          <mxGeometry x="30" y="230" width="200" height="590" as="geometry"/>
        </mxCell>
        <mxCell id="677b7b8949515195-9" value="" style="line;strokeWidth=1;html=1;rounded=0;shadow=0;labelBackgroundColor=none;fillColor=none;fontFamily=Verdana;fontSize=14;fontColor=#000000;align=center;comic=1;" parent="1" vertex="1">
          <mxGeometry x="20" y="140" width="1060" height="10" as="geometry"/>
        </mxCell>
        <mxCell id="677b7b8949515195-10" value="" style="whiteSpace=wrap;html=1;rounded=0;shadow=0;labelBackgroundColor=none;strokeWidth=1;fillColor=none;fontFamily=Verdana;fontSize=12;align=center;comic=1;" parent="1" vertex="1">
          <mxGeometry x="30" y="160" width="1040" height="50" as="geometry"/>
        </mxCell>
        <mxCell id="677b7b8949515195-11" value="Get started" style="text;html=1;points=[];align=left;verticalAlign=top;spacingTop=-4;fontSize=14;fontFamily=Verdana;fontStyle=4" parent="1" vertex="1">
          <mxGeometry x="320" y="175" width="60" height="20" as="geometry"/>
        </mxCell>
        <mxCell id="677b7b8949515195-12" value="Products &amp;amp; Services" style="text;html=1;points=[];align=left;verticalAlign=top;spacingTop=-4;fontSize=14;fontFamily=Verdana;fontStyle=4" parent="1" vertex="1">
          <mxGeometry x="430" y="175" width="60" height="20" as="geometry"/>
        </mxCell>
        <mxCell id="677b7b8949515195-13" value="Support" style="text;html=1;points=[];align=left;verticalAlign=top;spacingTop=-4;fontSize=14;fontFamily=Verdana;fontStyle=4" parent="1" vertex="1">
          <mxGeometry x="611" y="175" width="60" height="20" as="geometry"/>
        </mxCell>
        <mxCell id="677b7b8949515195-14" value="FAQs" style="text;html=1;points=[];align=left;verticalAlign=top;spacingTop=-4;fontSize=14;fontFamily=Verdana;fontStyle=4" parent="1" vertex="1">
          <mxGeometry x="710" y="175" width="60" height="20" as="geometry"/>
        </mxCell>
        <mxCell id="677b7b8949515195-15" value="&lt;div style=&quot;text-align: justify&quot;&gt;&lt;span&gt;Lorem ipsum dolor sit amet, consectetur adipisicing elit, sed do eiusmod tempor incididunt ut labore et dolore magna aliqua. Ut enim ad minim veniam, quis nostrud exercitation ullamco laboris nisi ut aliquip ex ea commodo consequat. Duis aute irure dolor in reprehenderit in voluptate velit esse cillum dolore eu fugiat nulla pariatur. Excepteur sint occaecat cupidatat non proident, sunt in culpa qui officia deserunt mollit anim id est laborum.&lt;/span&gt;&lt;/div&gt;&lt;div style=&quot;text-align: justify&quot;&gt;&lt;span&gt;Sed ut perspiciatis unde omnis iste natus error sit voluptatem accusantium doloremque laudantium, totam rem aperiam, eaque ipsa quae ab illo inventore veritatis et quasi architecto beatae vitae dicta sunt explicabo. Nemo enim ipsam voluptatem quia voluptas sit aspernatur aut odit aut fugit, sed quia consequuntur magni dolores eos qui ratione voluptatem sequi nesciunt.&amp;nbsp;&lt;/span&gt;&lt;/div&gt;" style="whiteSpace=wrap;html=1;rounded=0;shadow=0;labelBackgroundColor=none;strokeWidth=1;fillColor=none;fontFamily=Verdana;fontSize=12;align=center;verticalAlign=top;spacing=10;comic=1;" parent="1" vertex="1">
          <mxGeometry x="250" y="640" width="580" height="180" as="geometry"/>
        </mxCell>
        <mxCell id="677b7b8949515195-16" value="" style="verticalLabelPosition=bottom;shadow=0;dashed=0;align=center;html=1;verticalAlign=top;strokeWidth=1;shape=mxgraph.mockup.graphics.simpleIcon;strokeColor=#999999;rounded=0;labelBackgroundColor=none;fontFamily=Verdana;fontSize=14;fontColor=#000000;comic=1;" parent="1" vertex="1">
          <mxGeometry x="250" y="230" width="580" height="400" as="geometry"/>
        </mxCell>
        <mxCell id="677b7b8949515195-25" value="" style="whiteSpace=wrap;html=1;rounded=0;shadow=0;labelBackgroundColor=none;strokeWidth=1;fillColor=none;fontFamily=Verdana;fontSize=12;align=center;comic=1;" parent="1" vertex="1">
          <mxGeometry x="840" y="230" width="230" height="400" as="geometry"/>
        </mxCell>
        <mxCell id="677b7b8949515195-26" value="" style="whiteSpace=wrap;html=1;rounded=0;shadow=0;labelBackgroundColor=none;strokeWidth=1;fillColor=none;fontFamily=Verdana;fontSize=12;align=center;comic=1;" parent="1" vertex="1">
          <mxGeometry x="840" y="640" width="230" height="180" as="geometry"/>
        </mxCell>
        <mxCell id="677b7b8949515195-27" value="Section 1" style="text;html=1;points=[];align=left;verticalAlign=top;spacingTop=-4;fontSize=14;fontFamily=Verdana" parent="1" vertex="1">
          <mxGeometry x="40" y="250" width="170" height="20" as="geometry"/>
        </mxCell>
        <mxCell id="677b7b8949515195-28" value="Section 2" style="text;html=1;points=[];align=left;verticalAlign=top;spacingTop=-4;fontSize=14;fontFamily=Verdana" parent="1" vertex="1">
          <mxGeometry x="40" y="286" width="170" height="20" as="geometry"/>
        </mxCell>
        <mxCell id="677b7b8949515195-29" value="Section 3" style="text;html=1;points=[];align=left;verticalAlign=top;spacingTop=-4;fontSize=14;fontFamily=Verdana" parent="1" vertex="1">
          <mxGeometry x="40" y="321" width="170" height="20" as="geometry"/>
        </mxCell>
        <mxCell id="677b7b8949515195-30" value="Section 4" style="text;html=1;points=[];align=left;verticalAlign=top;spacingTop=-4;fontSize=14;fontFamily=Verdana" parent="1" vertex="1">
          <mxGeometry x="40" y="357" width="170" height="20" as="geometry"/>
        </mxCell>
        <mxCell id="677b7b8949515195-31" value="Section 7" style="text;html=1;points=[];align=left;verticalAlign=top;spacingTop=-4;fontSize=14;fontFamily=Verdana" parent="1" vertex="1">
          <mxGeometry x="40" y="464" width="170" height="20" as="geometry"/>
        </mxCell>
        <mxCell id="677b7b8949515195-32" value="Section 8" style="text;html=1;points=[];align=left;verticalAlign=top;spacingTop=-4;fontSize=14;fontFamily=Verdana" parent="1" vertex="1">
          <mxGeometry x="40" y="500" width="170" height="20" as="geometry"/>
        </mxCell>
        <mxCell id="677b7b8949515195-33" value="Section 9" style="text;html=1;points=[];align=left;verticalAlign=top;spacingTop=-4;fontSize=14;fontFamily=Verdana" parent="1" vertex="1">
          <mxGeometry x="40" y="536" width="170" height="20" as="geometry"/>
        </mxCell>
        <mxCell id="677b7b8949515195-34" value="Section 10" style="text;html=1;points=[];align=left;verticalAlign=top;spacingTop=-4;fontSize=14;fontFamily=Verdana" parent="1" vertex="1">
          <mxGeometry x="40" y="571" width="170" height="20" as="geometry"/>
        </mxCell>
        <mxCell id="677b7b8949515195-35" value="Section 11" style="text;html=1;points=[];align=left;verticalAlign=top;spacingTop=-4;fontSize=14;fontFamily=Verdana" parent="1" vertex="1">
          <mxGeometry x="40" y="607" width="170" height="20" as="geometry"/>
        </mxCell>
        <mxCell id="677b7b8949515195-36" value="Section 12" style="text;html=1;points=[];align=left;verticalAlign=top;spacingTop=-4;fontSize=14;fontFamily=Verdana" parent="1" vertex="1">
          <mxGeometry x="40" y="643" width="170" height="20" as="geometry"/>
        </mxCell>
        <mxCell id="677b7b8949515195-37" value="Section 13" style="text;html=1;points=[];align=left;verticalAlign=top;spacingTop=-4;fontSize=14;fontFamily=Verdana" parent="1" vertex="1">
          <mxGeometry x="40" y="679" width="170" height="20" as="geometry"/>
        </mxCell>
        <mxCell id="677b7b8949515195-38" value="Section 14" style="text;html=1;points=[];align=left;verticalAlign=top;spacingTop=-4;fontSize=14;fontFamily=Verdana" parent="1" vertex="1">
          <mxGeometry x="40" y="714" width="170" height="20" as="geometry"/>
        </mxCell>
        <mxCell id="677b7b8949515195-39" value="Section 5" style="text;html=1;points=[];align=left;verticalAlign=top;spacingTop=-4;fontSize=14;fontFamily=Verdana" parent="1" vertex="1">
          <mxGeometry x="40" y="393" width="170" height="20" as="geometry"/>
        </mxCell>
        <mxCell id="677b7b8949515195-40" value="Section 6" style="text;html=1;points=[];align=left;verticalAlign=top;spacingTop=-4;fontSize=14;fontFamily=Verdana" parent="1" vertex="1">
          <mxGeometry x="40" y="429" width="170" height="20" as="geometry"/>
        </mxCell>
        <mxCell id="677b7b8949515195-41" value="Section 15" style="text;html=1;points=[];align=left;verticalAlign=top;spacingTop=-4;fontSize=14;fontFamily=Verdana" parent="1" vertex="1">
          <mxGeometry x="40" y="750" width="170" height="20" as="geometry"/>
        </mxCell>
        <mxCell id="677b7b8949515195-42" value="External Links" style="text;html=1;points=[];align=left;verticalAlign=top;spacingTop=-4;fontSize=14;fontFamily=Verdana" parent="1" vertex="1">
          <mxGeometry x="860" y="653" width="170" height="20" as="geometry"/>
        </mxCell>
        <mxCell id="677b7b8949515195-44" value="Feature 1" style="text;html=1;points=[];align=left;verticalAlign=top;spacingTop=-4;fontSize=14;fontFamily=Verdana" parent="1" vertex="1">
          <mxGeometry x="860" y="250" width="170" height="20" as="geometry"/>
        </mxCell>
        <mxCell id="677b7b8949515195-45" value="Feature 2" style="text;html=1;points=[];align=left;verticalAlign=top;spacingTop=-4;fontSize=14;fontFamily=Verdana" parent="1" vertex="1">
          <mxGeometry x="860" y="285" width="170" height="20" as="geometry"/>
        </mxCell>
        <mxCell id="677b7b8949515195-46" value="Feature 3" style="text;html=1;points=[];align=left;verticalAlign=top;spacingTop=-4;fontSize=14;fontFamily=Verdana" parent="1" vertex="1">
          <mxGeometry x="860" y="320" width="170" height="20" as="geometry"/>
        </mxCell>
        <mxCell id="677b7b8949515195-47" value="Feature 4" style="text;html=1;points=[];align=left;verticalAlign=top;spacingTop=-4;fontSize=14;fontFamily=Verdana" parent="1" vertex="1">
          <mxGeometry x="860" y="355" width="170" height="20" as="geometry"/>
        </mxCell>
        <mxCell id="677b7b8949515195-48" value="Feature 5" style="text;html=1;points=[];align=left;verticalAlign=top;spacingTop=-4;fontSize=14;fontFamily=Verdana" parent="1" vertex="1">
          <mxGeometry x="860" y="390" width="170" height="20" as="geometry"/>
        </mxCell>
        <mxCell id="677b7b8949515195-49" value="Feature 6" style="text;html=1;points=[];align=left;verticalAlign=top;spacingTop=-4;fontSize=14;fontFamily=Verdana" parent="1" vertex="1">
          <mxGeometry x="860" y="425" width="170" height="20" as="geometry"/>
        </mxCell>
      </root>
    </mxGraphModel>
  </diagram>
  <diagram id="uniPPKt_yD_kISPJrwE9" name="ClientLogin">
    <mxGraphModel dx="1013" dy="541" grid="1" gridSize="10" guides="1" tooltips="1" connect="1" arrows="1" fold="1" page="1" pageScale="1" pageWidth="850" pageHeight="1100" math="0" shadow="0">
      <root>
        <mxCell id="n3k40eva76sR16xTQInX-0"/>
        <mxCell id="n3k40eva76sR16xTQInX-1" parent="n3k40eva76sR16xTQInX-0"/>
        <mxCell id="fTYBwJFmmUvuFQbaLSBN-0" value="" style="whiteSpace=wrap;html=1;rounded=0;shadow=0;labelBackgroundColor=none;strokeWidth=1;fillColor=none;fontFamily=Verdana;fontSize=12;align=center;comic=1;" parent="n3k40eva76sR16xTQInX-1" vertex="1">
          <mxGeometry x="28" y="490" width="330" height="180" as="geometry"/>
        </mxCell>
        <mxCell id="jVxEg9bgunc9pnDNyW41-0" value="" style="whiteSpace=wrap;html=1;rounded=0;shadow=0;labelBackgroundColor=none;strokeColor=#000000;strokeWidth=1;fillColor=none;fontFamily=Verdana;fontSize=12;fontColor=#000000;align=center;comic=1;" parent="n3k40eva76sR16xTQInX-1" vertex="1">
          <mxGeometry x="20" y="20" width="1060" height="810" as="geometry"/>
        </mxCell>
        <UserObject label="&lt;div&gt;&lt;font style=&quot;font-size: 18px&quot;&gt;Company&lt;/font&gt;&lt;/div&gt;&lt;div style=&quot;font-size: 22px&quot;&gt;LOGO&lt;/div&gt;" link="data:page/id,03018318-947c-dd8e-b7a3-06fadd420f32" id="jVxEg9bgunc9pnDNyW41-1">
          <mxCell style="whiteSpace=wrap;html=1;rounded=0;shadow=0;labelBackgroundColor=none;strokeWidth=1;fontFamily=Verdana;fontSize=28;align=center;comic=1;" parent="n3k40eva76sR16xTQInX-1" vertex="1">
            <mxGeometry x="40" y="60" width="190" height="60" as="geometry"/>
          </mxCell>
        </UserObject>
        <mxCell id="jVxEg9bgunc9pnDNyW41-2" value="Search" style="strokeWidth=1;shadow=0;dashed=0;align=center;html=1;shape=mxgraph.mockup.forms.searchBox;strokeColor=#999999;mainText=;strokeColor2=#008cff;fontColor=#666666;fontSize=17;align=left;spacingLeft=3;rounded=0;labelBackgroundColor=none;comic=1;" parent="n3k40eva76sR16xTQInX-1" vertex="1">
          <mxGeometry x="840" y="95" width="220" height="30" as="geometry"/>
        </mxCell>
        <mxCell id="jVxEg9bgunc9pnDNyW41-8" value="" style="line;strokeWidth=1;html=1;rounded=0;shadow=0;labelBackgroundColor=none;fillColor=none;fontFamily=Verdana;fontSize=14;fontColor=#000000;align=center;comic=1;" parent="n3k40eva76sR16xTQInX-1" vertex="1">
          <mxGeometry x="20" y="140" width="1060" height="10" as="geometry"/>
        </mxCell>
        <mxCell id="jVxEg9bgunc9pnDNyW41-9" value="" style="whiteSpace=wrap;html=1;rounded=0;shadow=0;labelBackgroundColor=none;strokeWidth=1;fillColor=none;fontFamily=Verdana;fontSize=12;align=center;comic=1;" parent="n3k40eva76sR16xTQInX-1" vertex="1">
          <mxGeometry x="30" y="160" width="1040" height="50" as="geometry"/>
        </mxCell>
        <mxCell id="jVxEg9bgunc9pnDNyW41-33" value="Developer&#39;s corner" style="text;html=1;points=[];align=left;verticalAlign=top;spacingTop=-4;fontSize=14;fontFamily=Verdana;fontStyle=4" parent="n3k40eva76sR16xTQInX-1" vertex="1">
          <mxGeometry x="50" y="530" width="170" height="20" as="geometry"/>
        </mxCell>
        <mxCell id="fTYBwJFmmUvuFQbaLSBN-1" value="" style="whiteSpace=wrap;html=1;rounded=0;shadow=0;labelBackgroundColor=none;strokeWidth=1;fillColor=none;fontFamily=Verdana;fontSize=12;align=center;comic=1;" parent="n3k40eva76sR16xTQInX-1" vertex="1">
          <mxGeometry x="380" y="490" width="330" height="180" as="geometry"/>
        </mxCell>
        <mxCell id="fTYBwJFmmUvuFQbaLSBN-2" value="" style="whiteSpace=wrap;html=1;rounded=0;shadow=0;labelBackgroundColor=none;strokeWidth=1;fillColor=none;fontFamily=Verdana;fontSize=12;align=center;comic=1;" parent="n3k40eva76sR16xTQInX-1" vertex="1">
          <mxGeometry x="730" y="490" width="330" height="180" as="geometry"/>
        </mxCell>
        <mxCell id="fTYBwJFmmUvuFQbaLSBN-7" value="&lt;div&gt;Learn more about our reusable, robust&lt;/div&gt;&lt;div&gt;and intuitive products.&lt;br&gt;&lt;/div&gt;" style="text;html=1;points=[];align=left;verticalAlign=top;spacingTop=-4;fontSize=14;fontFamily=Verdana" parent="n3k40eva76sR16xTQInX-1" vertex="1">
          <mxGeometry x="70" y="570" width="170" height="60" as="geometry"/>
        </mxCell>
        <mxCell id="fTYBwJFmmUvuFQbaLSBN-8" value="Web applications" style="text;html=1;points=[];align=left;verticalAlign=top;spacingTop=-4;fontSize=14;fontFamily=Verdana;fontStyle=4" parent="n3k40eva76sR16xTQInX-1" vertex="1">
          <mxGeometry x="390" y="530" width="170" height="20" as="geometry"/>
        </mxCell>
        <mxCell id="fTYBwJFmmUvuFQbaLSBN-9" value="&lt;div&gt;Learn more about our reusable, robust&lt;/div&gt;&lt;div&gt;and intuitive products.&lt;br&gt;&lt;/div&gt;" style="text;html=1;points=[];align=left;verticalAlign=top;spacingTop=-4;fontSize=14;fontFamily=Verdana" parent="n3k40eva76sR16xTQInX-1" vertex="1">
          <mxGeometry x="410" y="570" width="170" height="60" as="geometry"/>
        </mxCell>
        <mxCell id="fTYBwJFmmUvuFQbaLSBN-10" value="Apps Connect" style="text;html=1;points=[];align=left;verticalAlign=top;spacingTop=-4;fontSize=14;fontFamily=Verdana;fontStyle=4" parent="n3k40eva76sR16xTQInX-1" vertex="1">
          <mxGeometry x="760" y="530" width="170" height="20" as="geometry"/>
        </mxCell>
        <mxCell id="fTYBwJFmmUvuFQbaLSBN-11" value="&lt;div&gt;Learn more about our reusable, robust&lt;/div&gt;&lt;div&gt;and intuitive products.&lt;br&gt;&lt;/div&gt;" style="text;html=1;points=[];align=left;verticalAlign=top;spacingTop=-4;fontSize=14;fontFamily=Verdana" parent="n3k40eva76sR16xTQInX-1" vertex="1">
          <mxGeometry x="760" y="570" width="170" height="60" as="geometry"/>
        </mxCell>
        <mxCell id="FwWrv0rjj4jycLm2I0Ag-11" value="" style="group" parent="n3k40eva76sR16xTQInX-1" vertex="1" connectable="0">
          <mxGeometry x="260" y="248" width="490" height="210" as="geometry"/>
        </mxCell>
        <mxCell id="fTYBwJFmmUvuFQbaLSBN-43" value="" style="group" parent="FwWrv0rjj4jycLm2I0Ag-11" vertex="1" connectable="0">
          <mxGeometry width="490" height="210" as="geometry"/>
        </mxCell>
        <mxCell id="FwWrv0rjj4jycLm2I0Ag-10" value="" style="group" parent="fTYBwJFmmUvuFQbaLSBN-43" vertex="1" connectable="0">
          <mxGeometry width="490" height="210" as="geometry"/>
        </mxCell>
        <mxCell id="jVxEg9bgunc9pnDNyW41-17" value="" style="whiteSpace=wrap;html=1;rounded=0;shadow=0;labelBackgroundColor=none;strokeWidth=1;fillColor=none;fontFamily=Verdana;fontSize=12;align=center;comic=1;" parent="FwWrv0rjj4jycLm2I0Ag-10" vertex="1">
          <mxGeometry y="-1" width="490" height="210" as="geometry"/>
        </mxCell>
        <mxCell id="fTYBwJFmmUvuFQbaLSBN-22" value="User ID" style="html=1;shadow=0;dashed=0;shape=mxgraph.bootstrap.rrect;rSize=5;strokeColor=#dddddd;fillColor=#ffffff;spacingLeft=50;fontSize=14;align=left;fontColor=#787878;whiteSpace=wrap;" parent="FwWrv0rjj4jycLm2I0Ag-10" vertex="1">
          <mxGeometry x="120" y="95" width="250" height="30" as="geometry"/>
        </mxCell>
        <mxCell id="fTYBwJFmmUvuFQbaLSBN-32" value="Password" style="html=1;shadow=0;dashed=0;shape=mxgraph.bootstrap.rrect;rSize=5;strokeColor=#dddddd;fillColor=#ffffff;spacingLeft=50;fontSize=14;align=left;fontColor=#787878;whiteSpace=wrap;" parent="FwWrv0rjj4jycLm2I0Ag-10" vertex="1">
          <mxGeometry x="120" y="135" width="250" height="30" as="geometry"/>
        </mxCell>
        <mxCell id="fTYBwJFmmUvuFQbaLSBN-39" value="&amp;nbsp;&amp;nbsp;&amp;nbsp;&amp;nbsp;&amp;nbsp;&amp;nbsp;&amp;nbsp;&amp;nbsp;&amp;nbsp;&amp;nbsp;&amp;nbsp; Applications" style="html=1;shadow=0;dashed=0;shape=mxgraph.bootstrap.rrect;rSize=5;strokeColor=#dddddd;spacingRight=10;fontSize=14;whiteSpace=wrap;align=left;fontColor=#787878;" parent="FwWrv0rjj4jycLm2I0Ag-10" vertex="1">
          <mxGeometry x="120" y="55" width="250" height="30" as="geometry"/>
        </mxCell>
        <mxCell id="fTYBwJFmmUvuFQbaLSBN-40" value="" style="shape=triangle;direction=south;fillColor=#000000;strokeColor=none;perimeter=none;" parent="fTYBwJFmmUvuFQbaLSBN-39" vertex="1">
          <mxGeometry x="1" y="0.5" width="10" height="5" relative="1" as="geometry">
            <mxPoint x="-20" y="-2.5" as="offset"/>
          </mxGeometry>
        </mxCell>
        <mxCell id="fTYBwJFmmUvuFQbaLSBN-41" value="Company ID" style="html=1;shadow=0;dashed=0;shape=mxgraph.bootstrap.rrect;rSize=5;strokeColor=#dddddd;fillColor=#ffffff;spacingLeft=50;fontSize=14;align=left;fontColor=#787878;whiteSpace=wrap;" parent="FwWrv0rjj4jycLm2I0Ag-10" vertex="1">
          <mxGeometry x="120" y="14" width="250" height="30" as="geometry"/>
        </mxCell>
        <mxCell id="FwWrv0rjj4jycLm2I0Ag-0" value="Sign me in" style="html=1;shadow=0;dashed=0;shape=mxgraph.bootstrap.rrect;rSize=5;fillColor=#55BFE0;align=center;strokeColor=#55BFE0;fontColor=#ffffff;fontSize=12;whiteSpace=wrap;" parent="FwWrv0rjj4jycLm2I0Ag-10" vertex="1">
          <mxGeometry x="120" y="180" width="90" height="22" as="geometry"/>
        </mxCell>
        <UserObject label="&lt;div&gt;Back to Home&lt;br&gt;&lt;/div&gt;" link="data:page/id,03018318-947c-dd8e-b7a3-06fadd420f32" id="FwWrv0rjj4jycLm2I0Ag-9">
          <mxCell style="html=1;shadow=0;dashed=0;shape=mxgraph.bootstrap.rrect;rSize=5;fillColor=#55BFE0;align=center;strokeColor=#55BFE0;fontColor=#ffffff;fontSize=12;whiteSpace=wrap;" parent="FwWrv0rjj4jycLm2I0Ag-10" vertex="1">
            <mxGeometry x="240" y="180" width="90" height="22" as="geometry"/>
          </mxCell>
        </UserObject>
      </root>
    </mxGraphModel>
  </diagram>
  <diagram name="AdminLogin" id="QcSqNq1Q-DK5ZfpZK_8s">
        <mxGraphModel dx="841" dy="457" grid="1" gridSize="10" guides="1" tooltips="1" connect="1" arrows="1" fold="1" page="1" pageScale="1" pageWidth="850" pageHeight="1100" math="0" shadow="0">
            <root>
                <mxCell id="DOQvIUDeQ6CX8_nrxEQ--0"/>
                <mxCell id="DOQvIUDeQ6CX8_nrxEQ--1" parent="DOQvIUDeQ6CX8_nrxEQ--0"/>
                <mxCell id="DOQvIUDeQ6CX8_nrxEQ--3" value="" style="whiteSpace=wrap;html=1;rounded=0;shadow=0;labelBackgroundColor=none;strokeColor=#000000;strokeWidth=1;fillColor=none;fontFamily=Verdana;fontSize=12;fontColor=#000000;align=center;comic=1;" vertex="1" parent="DOQvIUDeQ6CX8_nrxEQ--1">
                    <mxGeometry x="20" y="20" width="1060" height="810" as="geometry"/>
                  </mxCell>
                <UserObject label="&lt;div&gt;&lt;font style=&quot;font-size: 18px&quot;&gt;Company&lt;/font&gt;&lt;/div&gt;&lt;div style=&quot;font-size: 22px&quot;&gt;LOGO&lt;/div&gt;" link="data:page/id,03018318-947c-dd8e-b7a3-06fadd420f32" id="DOQvIUDeQ6CX8_nrxEQ--4">
                    <mxCell style="whiteSpace=wrap;html=1;rounded=0;shadow=0;labelBackgroundColor=none;strokeWidth=1;fontFamily=Verdana;fontSize=28;align=center;comic=1;" vertex="1" parent="DOQvIUDeQ6CX8_nrxEQ--1">
                        <mxGeometry x="40" y="60" width="190" height="60" as="geometry"/>
                      </mxCell>
                  </UserObject>
                <mxCell id="DOQvIUDeQ6CX8_nrxEQ--5" value="Search" style="strokeWidth=1;shadow=0;dashed=0;align=center;html=1;shape=mxgraph.mockup.forms.searchBox;strokeColor=#999999;mainText=;strokeColor2=#008cff;fontColor=#666666;fontSize=17;align=left;spacingLeft=3;rounded=0;labelBackgroundColor=none;comic=1;" vertex="1" parent="DOQvIUDeQ6CX8_nrxEQ--1">
                    <mxGeometry x="840" y="95" width="220" height="30" as="geometry"/>
                  </mxCell>
                <mxCell id="DOQvIUDeQ6CX8_nrxEQ--6" value="" style="line;strokeWidth=1;html=1;rounded=0;shadow=0;labelBackgroundColor=none;fillColor=none;fontFamily=Verdana;fontSize=14;fontColor=#000000;align=center;comic=1;" vertex="1" parent="DOQvIUDeQ6CX8_nrxEQ--1">
                    <mxGeometry x="20" y="140" width="1060" height="10" as="geometry"/>
                  </mxCell>
                <mxCell id="DOQvIUDeQ6CX8_nrxEQ--7" value="" style="whiteSpace=wrap;html=1;rounded=0;shadow=0;labelBackgroundColor=none;strokeWidth=1;fillColor=none;fontFamily=Verdana;fontSize=12;align=center;comic=1;" vertex="1" parent="DOQvIUDeQ6CX8_nrxEQ--1">
                    <mxGeometry x="30" y="160" width="1040" height="50" as="geometry"/>
                  </mxCell>
                <mxCell id="DOQvIUDeQ6CX8_nrxEQ--16" value="" style="group" vertex="1" connectable="0" parent="DOQvIUDeQ6CX8_nrxEQ--1">
                    <mxGeometry x="260" y="270" width="490" height="180" as="geometry"/>
                  </mxCell>
                <mxCell id="DOQvIUDeQ6CX8_nrxEQ--17" value="" style="whiteSpace=wrap;html=1;rounded=0;shadow=0;labelBackgroundColor=none;strokeWidth=1;fillColor=none;fontFamily=Verdana;fontSize=12;align=center;comic=1;" vertex="1" parent="DOQvIUDeQ6CX8_nrxEQ--16">
                    <mxGeometry width="490" height="180" as="geometry"/>
                  </mxCell>
                <mxCell id="DOQvIUDeQ6CX8_nrxEQ--18" value="User ID" style="html=1;shadow=0;dashed=0;shape=mxgraph.bootstrap.rrect;rSize=5;strokeColor=#dddddd;fillColor=#ffffff;spacingLeft=50;fontSize=14;align=left;fontColor=#787878;whiteSpace=wrap;" vertex="1" parent="DOQvIUDeQ6CX8_nrxEQ--16">
                    <mxGeometry x="120" y="18" width="250" height="30" as="geometry"/>
                  </mxCell>
                <mxCell id="DOQvIUDeQ6CX8_nrxEQ--19" value="Password" style="html=1;shadow=0;dashed=0;shape=mxgraph.bootstrap.rrect;rSize=5;strokeColor=#dddddd;fillColor=#ffffff;spacingLeft=50;fontSize=14;align=left;fontColor=#787878;whiteSpace=wrap;" vertex="1" parent="DOQvIUDeQ6CX8_nrxEQ--16">
                    <mxGeometry x="120" y="58" width="250" height="30" as="geometry"/>
                  </mxCell>
                <mxCell id="8BowuRqT1sKsMRheUvj5-0" value="Sign me in" style="html=1;shadow=0;dashed=0;shape=mxgraph.bootstrap.rrect;rSize=5;fillColor=#55BFE0;align=center;strokeColor=#55BFE0;fontColor=#ffffff;fontSize=12;whiteSpace=wrap;" vertex="1" parent="DOQvIUDeQ6CX8_nrxEQ--16">
                    <mxGeometry x="140" y="110" width="90" height="22" as="geometry"/>
                  </mxCell>
                <UserObject label="Back to Home" id="8BowuRqT1sKsMRheUvj5-1">
                    <mxCell style="html=1;shadow=0;dashed=0;shape=mxgraph.bootstrap.rrect;rSize=5;fillColor=#55BFE0;align=center;strokeColor=#55BFE0;fontColor=#ffffff;fontSize=12;whiteSpace=wrap;" vertex="1" parent="DOQvIUDeQ6CX8_nrxEQ--16">
                        <mxGeometry x="250" y="110" width="90" height="22" as="geometry"/>
                      </mxCell>
                  </UserObject>
              </root>
          </mxGraphModel>
      </diagram>
</mxfile>
